<?xml version="1.0" encoding="UTF-8"?>
<svg width="16px" height="16px" viewBox="0 0 16 16" version="1.1" xmlns="http://www.w3.org/2000/svg" xmlns:xlink="http://www.w3.org/1999/xlink">
    <title>chevron-down</title>
    <g id="Page-1" stroke="none" stroke-width="1" fill="none" fill-rule="evenodd">
        <g id="chevron-down" transform="translate(8.000000, 8.000000) rotate(-180.000000) translate(-8.000000, -8.000000) translate(0.000000, 0.000000)">
            <polygon id="Path" points="0 0 16 0 16 16 0 16"></polygon>
            <path d="M8.202,10.637 C8.27680245,10.6129541 8.34684804,10.5760702 8.409,10.528 L8.471,10.473 L12.471,6.473 C12.7198173,6.22408106 12.7324115,5.82466909 12.4997707,5.56056887 C12.2671298,5.29646865 11.8693202,5.25857358 11.591,5.474 L11.529,5.53 L8,9.059 L4.471,5.529 C4.22142196,5.28388667 3.82488007,5.27323194 3.56249967,5.5045894 C3.30011928,5.73594686 3.2610545,6.13070367 3.473,6.409 L3.529,6.473 L7.529,10.473 C7.65392657,10.5978911 7.82335224,10.668 8,10.668 L8.013,10.668 C8.0482084,10.6674311 8.08331716,10.6640874 8.118,10.658 L8.202,10.637 L8.202,10.637 Z" id="Path" fill="#110F28" fill-rule="nonzero"></path>
        </g>
    </g>
</svg>