<?xml version="1.0" encoding="UTF-8"?>
<svg width="52px" height="52px" viewBox="0 0 52 52" version="1.1" xmlns="http://www.w3.org/2000/svg" xmlns:xlink="http://www.w3.org/1999/xlink">
    <title>lightning-icon</title>
    <g id="Page-1" stroke="none" stroke-width="1" fill="none" fill-rule="evenodd">
        <g id="lightning-icon" transform="translate(1.000000, 1.000000)">
            <circle id="Oval" stroke="#FFFFFF" stroke-width="1.38888889" fill="#E8E7F7" fill-rule="nonzero" cx="25" cy="25" r="25"></circle>
            <path d="M11.9970588,12.0588235 L37.8794118,12.0588235 L37.8794118,37.9411765 L11.9970588,37.9411765 L11.9970588,12.0588235 Z M11.9970588,12.0588235 L37.8794118,12.0588235 L37.8794118,37.9411765 L11.9970588,37.9411765 L11.9970588,12.0588235 Z M11.9970588,12.0588235 L37.8794118,12.0588235 L37.8794118,37.9411765 L11.9970588,37.9411765 L11.9970588,12.0588235 Z M11.9970588,12.0588235 L37.8794118,12.0588235 L37.8794118,37.9411765 L11.9970588,37.9411765 L11.9970588,12.0588235 Z" id="Shape"></path>
            <path d="M14.4044118,26.4661765 L14.3308824,26.5647059 C13.8654412,27.2632353 14.3602941,28.2352941 15.2323529,28.2352941 L23.7154412,28.2352941 L22.7897059,35.6507353 C22.6566176,36.7191176 23.9992647,37.3022059 24.6882353,36.4742647 L35.4727941,23.5330882 L35.5463235,23.4352941 C36.0117647,22.7367647 35.5169118,21.7647059 34.6441176,21.7647059 L26.1602941,21.7647059 L27.0867647,14.3492647 C27.2205882,13.2808824 25.8779412,12.6977941 25.1882353,13.5257353 L14.4044118,26.4669118 L14.4044118,26.4661765 Z" id="Path" fill="#4234BC" fill-rule="nonzero"></path>
        </g>
    </g>
</svg>